                               ___....___
     ^^                __..-:'':__:..:__:'':-..__
                   _.-:__:.-:'':  :  :  :'':-.:__:-._
                 .':.-:  :  :  :  :  :  :  :  :  :._:'.
              _ :.':  :  :  :  :  :  :  :  :  :  :  :'.: _
             [ ]:  :  :  :  :  :  :  :  :  :  :  :  :  :[ ]
             [ ]:  :  :  :  :  :  :  :  :  :  :  :  :  :[ ]
    :::::::::[ ]:__:__:__:__:__:__:__:__:__:__:__:__:__:[ ]:::::::::::
    !!!!!!!!![ ]!!!!!!!!!!!!!!!!!!!!!!!!!!!!!!!!!!!!!!!![ ]!!!!!!!!!!!
    ^^^^^^^^^[ ]^^^^^^^^^^^^^^^^^^^^^^^^^^^^^^^^^^^^^^^^[ ]^^^^^^^^^^^
             [ ]                                        [ ]
             [ ]                                        [ ]
       jgs   [ ]                                        [ ]
     ~~^_~^~/   \~^-~^~ _~^-~_^~-^~_^~~-^~_~^~-~_~-^~_^/   \~^ ~~_ ^